{"count":516,"next":"http://127.0.0.1:8000/api/v1/partnerships/partners/?limit=25&offset=25&ordering=city","previous":null,"results":[{"uuid":"a313931c-d47a-4b65-9df6-b50c69bfd326","name":"RWTH Aachen University","website":"http://www.rwth-aachen.de","erasmus_code":"D  AACHEN01","partner_type":"Ambassade","city":"Aachen","country":"Allemagne","country_iso":"DE","partnerships_count":4},{"uuid":"ebe19ebc-a2d5-43d9-b6de-691a07bf16ce","name":"Indian Institute of Management Abmedabad","website":"http://www.iimahd.ernet.in","erasmus_code":null,"partner_type":"Ambassade","city":"Ahmedabad","country":"Inde","country_iso":"IN","partnerships_count":1},{"uuid":"5502be22-5e45-4179-9ada-db9fa0d0aba7","name":"Akdeniz University","website":"http://www.akdeniz.edu.tr","erasmus_code":null,"partner_type":"Ambassade","city":"Akdeniz","country":"Turquie","country_iso":"TR","partnerships_count":1},{"uuid":"abc38b05-4392-43c2-b510-8a561bcf2c51","name":"University of Akureyri","website":"http://www.unak.is","erasmus_code":"IS AKUREYR01","partner_type":"Ambassade","city":"Akureyri","country":"Islande","country_iso":"IS","partnerships_count":1},{"uuid":"b80487aa-039a-4c97-982a-c8fecca3f9d5","name":"Incae Business School","website":"http://www.incae.edu/","erasmus_code":null,"partner_type":"Ambassade","city":"Alajuela","country":"Costa Rica","country_iso":"CR","partnerships_count":1},{"uuid":"dc3074c0-c679-4e40-9b93-79ca1f4bf8a6","name":"Ålborg Universitet","website":"http://www.auc.dk","erasmus_code":"DK ALBORG01","partner_type":"Ambassade","city":"Ålborg","country":"Danemark","country_iso":"DK","partnerships_count":1},{"uuid":"704ac541-7168-417f-8410-f5c6e0ba5f7d","name":"Universidad de Alcalá","website":"http://www.uah.es","erasmus_code":"E  ALCAL-H01","partner_type":"Ambassade","city":"Alcalá de Henares","country":"Espagne","country_iso":"ES","partnerships_count":2},{"uuid":"601eb4bd-3b54-4621-8aae-1fd839fb728a","name":"Universidad de Alicante","website":"http://www.ua.es","erasmus_code":"E  ALICANT01","partner_type":"Ambassade","city":"Alicante","country":"Espagne","country_iso":"ES","partnerships_count":1},{"uuid":"923940f5-936b-4435-b128-114f9810a286","name":"Universiteit van Amsterdam","website":"http://www.uva.nl/","erasmus_code":"NL AMSTERD01","partner_type":"Ambassade","city":"Amsterdam","country":"Pays-Bas","country_iso":"NL","partnerships_count":1},{"uuid":"8df05e73-4dc6-4945-99e5-1cff6ed7f54c","name":"Université d'Angers","website":"http://www.univ-angers.fr","erasmus_code":"F  ANGERS01","partner_type":"Ambassade","city":"Angers","country":"France","country_iso":"FR","partnerships_count":1},{"uuid":"6cb75dc3-f578-46e2-8b2d-cd22eaac9f36","name":"Université Catholique de l'Ouest","website":"http://www.uco.fr","erasmus_code":"F  ANGERS04","partner_type":"Ambassade","city":"Angers","country":"France","country_iso":"FR","partnerships_count":3},{"uuid":"a64495d6-8159-4dcf-9624-b9eb1ffec9e2","name":"Ecole supérieure d'agricultures d'Angers","website":"http://www.groupe-esa.com","erasmus_code":"F  ANGERS08","partner_type":"Ambassade","city":"Angers","country":"France","country_iso":"FR","partnerships_count":1},{"uuid":"c5cca1d1-5911-4156-b5c8-4e2e25f43e52","name":"Bilkent University","website":"http://www.bilkent.edu.tr","erasmus_code":"TR ANKARA07","partner_type":"Ambassade","city":"Ankara","country":"Turquie","country_iso":"TR","partnerships_count":2},{"uuid":"32c48e52-229e-485a-aa3a-9e9904971af5","name":"Middle East Technical University","website":"http://www.metu.edu.tr","erasmus_code":"TR ANKARA04","partner_type":"Université ou IES","city":"Ankara","country":"Turquie","country_iso":"TR","partnerships_count":1},{"uuid":"d928a3ce-4ebd-4b28-9ea4-e8c597c91ac3","name":"Universiteit Antwerpen","website":"http://www.ua.ac.be","erasmus_code":"B  ANTWERP01","partner_type":"Ambassade","city":"Antwerpen","country":"Belgique","country_iso":"BE","partnerships_count":7},{"uuid":"b97c2213-3a57-4a86-9fc9-5a2da6a98abb","name":"Universita della Valle d'Aosta","website":"http://www.univda.it","erasmus_code":"I  AOSTA02","partner_type":"Ambassade","city":"Aoste","country":"Italie","country_iso":"IT","partnerships_count":1},{"uuid":"83c67a1d-d0c3-4062-9ca8-cb6d48cd43a6","name":"Aarhus Universitet","website":"http://www.au.dk","erasmus_code":"DK ARHUS01","partner_type":"Ambassade","city":"Århus","country":"Danemark","country_iso":"DK","partnerships_count":1},{"uuid":"7e548ffa-70c2-4d4b-9b84-9a93113cd89a","name":"Athens University of Economics and Business","website":"http://www.aueb.gr","erasmus_code":"G  ATHINE04","partner_type":"Ambassade","city":"Athènes","country":"Grèce","country_iso":"GR","partnerships_count":1},{"uuid":"805098bf-2da2-4acf-b979-4d60f80cec9d","name":"Panteion University of Social and Political Sciences","website":"http://www.panteion.gr","erasmus_code":"G  KALLITH02","partner_type":"Ambassade","city":"Athènes","country":"Grèce","country_iso":"GR","partnerships_count":1},{"uuid":"8a84fd02-f92e-4f22-9667-9f76ed9afe00","name":"National and Kapodistrian University of Athens","website":"http://www.uoa.gr","erasmus_code":"G  ATHINE01","partner_type":"Ambassade","city":"Athènes","country":"Grèce","country_iso":"GR","partnerships_count":1},{"uuid":"7a165f41-72ea-4cdb-8361-b6d8e00f9e18","name":"Universität Augsburg","website":"http://www.uni-augsburg.de","erasmus_code":"D  AUGSBUR01","partner_type":"Ambassade","city":"Augsburg","country":"Allemagne","country_iso":"DE","partnerships_count":1},{"uuid":"49fafd69-f98e-46ca-8d3a-4d82192c6b16","name":"Université d'Avignon et des Pays de Vaucluse","website":"http://www.univ-avignon.fr","erasmus_code":"F  AVIGNON01","partner_type":"Ambassade","city":"Avignon","country":"France","country_iso":"FR","partnerships_count":1},{"uuid":"ca01c132-b5a7-47ab-b6f5-cd4386305318","name":"University of Balamand","website":"http://www.balamand.edu.lb","erasmus_code":null,"partner_type":"Ambassade","city":"Balamand","country":"Liban","country_iso":"LB","partnerships_count":1},{"uuid":"22391941-40c2-423b-96fc-4b8b5cbb36e0","name":"Otto-Friedrich-Universität Bamberg","website":"http://www.uni-bamberg.de","erasmus_code":"D  BAMBERG01","partner_type":"Ambassade","city":"Bamberg","country":"Allemagne","country_iso":"DE","partnerships_count":1},{"uuid":"21785b36-782f-4041-ad87-3cc2a4be6e7b","name":"Indian Institute of Management Bangalore","website":"http://www.iimb.ernet.in","erasmus_code":null,"partner_type":"Ambassade","city":"Bangalore","country":"Inde","country_iso":"IN","partnerships_count":1}]}
