{
  "count": 516,
  "next": "http://127.0.0.1:8000/api/v1/partnerships/partners/?campus=&city=&continent=&country=&education_field=&limit=25&offset=25&ordering=&supervisor=&type=&ucl_university=&ucl_university_labo=",
  "previous": null,
  "results": [{
    "uuid": "32c48e52-229e-485a-aa3a-9e9904971af5",
    "name": "Middle East Technical University",
    "website": "http://www.metu.edu.tr",
    "erasmus_code": "TR ANKARA04",
    "partner_type": "Université ou IES",
    "city": "Ankara",
    "country": "Turquie",
    "country_iso": "TR",
    "partnerships_count": 1
  }, {
    "uuid": "e842586e-b378-4985-90c5-ab2a78794181",
    "name": "Mary Immaculate College",
    "website": "http://www.mic.ul.ie",
    "erasmus_code": "IRLLIMERIC04",
    "partner_type": "Université ou IES",
    "city": "Limerick",
    "country": "Irlande (Eire)",
    "country_iso": "IE",
    "partnerships_count": 1
  }, {
    "uuid": "3be211e0-86eb-4542-a532-b926dd92cd65",
    "name": "National University of Life and Environmental Sciences of Ukraine",
    "website": "http://nubip.edu.ua",
    "erasmus_code": null,
    "partner_type": "Université ou IES",
    "city": "Kyiv",
    "country": "Ukraine (République d')",
    "country_iso": "UA",
    "partnerships_count": 1
  }, {
    "uuid": "ec47924e-1183-4cec-852e-1e6dda7d516a",
    "name": "Indian School of Business",
    "website": "http://www.isb.edu",
    "erasmus_code": null,
    "partner_type": "Université ou IES",
    "city": "Hyderabad",
    "country": "Inde",
    "country_iso": "IN",
    "partnerships_count": 1
  }, {
    "uuid": "71b4e810-78e1-4403-96ed-dd694a4d1079",
    "name": "Libera Università di Bolzano",
    "website": "http://www.unibz.it",
    "erasmus_code": "I  BOLZANO01",
    "partner_type": "Université ou IES",
    "city": "Bolzano",
    "country": "Italie",
    "country_iso": "IT",
    "partnerships_count": 1
  }, {
    "uuid": "8f1419c6-22be-49bf-9655-247b7e0f2dbe",
    "name": "Université Côté d'Azur",
    "website": "http://univ-cotedazur.fr",
    "erasmus_code": "F NICE41",
    "partner_type": "Université ou IES",
    "city": "Nice",
    "country": "France",
    "country_iso": "FR",
    "partnerships_count": 1
  }, {
    "uuid": "b2953ec5-3ac8-49ff-8a76-4d01f874b1db",
    "name": "Universidad Europea de Valencia",
    "website": "http://internacional.universidadeuropea.es",
    "erasmus_code": "E  VALENCI91",
    "partner_type": "Université ou IES",
    "city": "Valencia",
    "country": "Espagne",
    "country_iso": "ES",
    "partnerships_count": 1
  }, {
    "uuid": "68e39b13-1ef9-41f8-a35b-68bbd6a7bdac",
    "name": "Kwansei Gakuin University",
    "website": "http://global.kwansei.ac.jp",
    "erasmus_code": null,
    "partner_type": "Université ou IES",
    "city": "Nishinomiya Hyogo",
    "country": "Japon",
    "country_iso": "JP",
    "partnerships_count": 1
  }, {
    "uuid": "7c6ce897-e4f9-472d-9e44-03869928d7b5",
    "name": "Universität Mannheim",
    "website": "http://www.uni-mannheim.de",
    "erasmus_code": "D  MANNHEI01",
    "partner_type": "Ambassade",
    "city": "Mannheim",
    "country": "Allemagne",
    "country_iso": "DE",
    "partnerships_count": 2
  }, {
    "uuid": "6bc72364-c98b-42f0-b663-48bbdf124b21",
    "name": "Universidad de Córdoba",
    "website": "http://www.uco.es",
    "erasmus_code": "E  CORDOBA01",
    "partner_type": "Ambassade",
    "city": "Córdoba",
    "country": "Espagne",
    "country_iso": "ES",
    "partnerships_count": 1
  }, {
    "uuid": "e45a3ac6-1298-40a7-8b51-fefb8be4c57c",
    "name": "National University of Ireland Maynooth",
    "website": "http://www.may.ie",
    "erasmus_code": "IRLMAYNOOT01",
    "partner_type": "Ambassade",
    "city": "Maynooth",
    "country": "Irlande (Eire)",
    "country_iso": "IE",
    "partnerships_count": 1
  }, {
    "uuid": "cec63ff6-8608-493a-a81e-099115247a41",
    "name": "London School of Economics and Political Science",
    "website": "http://www.lse.ac.uk",
    "erasmus_code": "UK LONDON020",
    "partner_type": "Ambassade",
    "city": "London",
    "country": "Gr.Bretagne/Irl.du Nord",
    "country_iso": "GB",
    "partnerships_count": 2
  }, {
    "uuid": "667c503a-1181-4de4-b187-e0ad54de0c28",
    "name": "Karlsruher Institut für Technologie",
    "website": "http://www.Kit.edu",
    "erasmus_code": "D  KARLSRU01",
    "partner_type": "Ambassade",
    "city": "Karlsruhe",
    "country": "Allemagne",
    "country_iso": "DE",
    "partnerships_count": 3
  }, {
    "uuid": "cd84f29c-e905-4cb9-9209-c2e81b24593e",
    "name": "Trinity College Dublin",
    "website": "http://www.tcd.ie",
    "erasmus_code": "IRLDUBLIN01",
    "partner_type": "Ambassade",
    "city": "Dublin",
    "country": "Irlande (Eire)",
    "country_iso": "IE",
    "partnerships_count": 6
  }, {
    "uuid": "cd875edf-1841-4908-bd76-6690b776ae3a",
    "name": "Universidad de Sevilla",
    "website": "http://www.us.es",
    "erasmus_code": "E  SEVILLA01",
    "partner_type": "Ambassade",
    "city": "Sevilla",
    "country": "Espagne",
    "country_iso": "ES",
    "partnerships_count": 4
  }, {
    "uuid": "2eada037-55d7-473a-8aa0-453f3eaf29d3",
    "name": "The University of Exeter",
    "website": "http://www.ex.ac.uk",
    "erasmus_code": "UK EXETER01",
    "partner_type": "Ambassade",
    "city": "Exeter",
    "country": "Gr.Bretagne/Irl.du Nord",
    "country_iso": "GB",
    "partnerships_count": 2
  }, {
    "uuid": "aaf2acc8-b535-49f0-a225-207bb1627f3c",
    "name": "Institut d'Etudes Politiques de Paris",
    "website": "http://www.sciences-po.fr",
    "erasmus_code": "F  PARIS014",
    "partner_type": "Ambassade",
    "city": "Paris",
    "country": "France",
    "country_iso": "FR",
    "partnerships_count": 3
  }, {
    "uuid": "a8fd278c-9b87-452a-b854-8faccce25c6d",
    "name": "Universität zu Köln",
    "website": "http://www.uni-koeln.de",
    "erasmus_code": "D  KOLN01",
    "partner_type": "Ambassade",
    "city": "Köln",
    "country": "Allemagne",
    "country_iso": "DE",
    "partnerships_count": 4
  }, {
    "uuid": "61b4c3cd-f3d1-425f-90df-ddf0bf933015",
    "name": "Universidad de Granada",
    "website": "http://www.ugr.es",
    "erasmus_code": "E  GRANADA01",
    "partner_type": "Ambassade",
    "city": "Granada",
    "country": "Espagne",
    "country_iso": "ES",
    "partnerships_count": 6
  }, {
    "uuid": "996acf17-4c75-41d1-9097-2f3219a85a4c",
    "name": "Lancaster University",
    "website": "http://www.lancs.ac.uk",
    "erasmus_code": "UK LANCAST01",
    "partner_type": "Ambassade",
    "city": "Lancaster",
    "country": "Gr.Bretagne/Irl.du Nord",
    "country_iso": "GB",
    "partnerships_count": 1
  }, {
    "uuid": "1b8d1a23-2e7d-4b79-ac5b-49d00983dc32",
    "name": "Universidad Complutense de Madrid",
    "website": "http://www.ucm.es",
    "erasmus_code": "E  MADRID03",
    "partner_type": "Ambassade",
    "city": "Madrid",
    "country": "Espagne",
    "country_iso": "ES",
    "partnerships_count": 7
  }, {
    "uuid": "5683ede8-41d9-4bd5-8eab-79850cdc5fd9",
    "name": "Universitat politécnica de Valencia",
    "website": "http://www.upv.es",
    "erasmus_code": "E  VALENCI02",
    "partner_type": "Ambassade",
    "city": "Valencia",
    "country": "Espagne",
    "country_iso": "ES",
    "partnerships_count": 3
  }, {
    "uuid": "6fd64f22-e0fa-4c1a-8047-639070c1d05a",
    "name": "Università degli studi di Siena",
    "website": "http://www.unisi.it",
    "erasmus_code": "I  SIENA01",
    "partner_type": "Ambassade",
    "city": "Siena",
    "country": "Italie",
    "country_iso": "IT",
    "partnerships_count": 3
  }, {
    "uuid": "e501ec74-f2bd-48c0-bb49-767eb46a8196",
    "name": "Universitat de Barcelona",
    "website": "http://www.ub.es",
    "erasmus_code": "E  BARCELO01",
    "partner_type": "Ambassade",
    "city": "Barcelona",
    "country": "Espagne",
    "country_iso": "ES",
    "partnerships_count": 6
  }, {
    "uuid": "4f71005a-467d-4a1c-b3d9-e9f6ba0890c7",
    "name": "Università Commerciale Luigi Bocconi",
    "website": "http://www.unibocconi.eu",
    "erasmus_code": "I  MILANO04",
    "partner_type": "Ambassade",
    "city": "Milano",
    "country": "Italie",
    "country_iso": "IT",
    "partnerships_count": 4
  }]
}
