{
  "count": 516,
  "next": "http://127.0.0.1:8000/api/v1/partnerships/partners/?limit=25&offset=50",
  "previous": "http://127.0.0.1:8000/api/v1/partnerships/partners/?limit=25",
  "results": [{
    "uuid": "ddaaf96f-8f5c-418d-ad69-89b3f2bf6e55",
    "name": "Georg-August-Universität Göttingen",
    "website": "http://www.uni-goettingen.de",
    "erasmus_code": "D  GOTTING01",
    "partner_type": "Ambassade",
    "city": "Göttingen",
    "country": "Allemagne",
    "country_iso": "DE",
    "partnerships_count": 2
  }, {
    "uuid": "4f71005a-467d-4a1c-b3d9-e9f6ba0890c7",
    "name": "Università Commerciale Luigi Bocconi",
    "website": "http://www.unibocconi.eu",
    "erasmus_code": "I  MILANO04",
    "partner_type": "Ambassade",
    "city": "Milano",
    "country": "Italie",
    "country_iso": "IT",
    "partnerships_count": 4
  }, {
    "uuid": "aaf2acc8-b535-49f0-a225-207bb1627f3c",
    "name": "Institut d'Etudes Politiques de Paris",
    "website": "http://www.sciences-po.fr",
    "erasmus_code": "F  PARIS014",
    "partner_type": "Ambassade",
    "city": "Paris",
    "country": "France",
    "country_iso": "FR",
    "partnerships_count": 3
  }, {
    "uuid": "996acf17-4c75-41d1-9097-2f3219a85a4c",
    "name": "Lancaster University",
    "website": "http://www.lancs.ac.uk",
    "erasmus_code": "UK LANCAST01",
    "partner_type": "Ambassade",
    "city": "Lancaster",
    "country": "Gr.Bretagne/Irl.du Nord",
    "country_iso": "GB",
    "partnerships_count": 1
  }, {
    "uuid": "1b8d1a23-2e7d-4b79-ac5b-49d00983dc32",
    "name": "Universidad Complutense de Madrid",
    "website": "http://www.ucm.es",
    "erasmus_code": "E  MADRID03",
    "partner_type": "Ambassade",
    "city": "Madrid",
    "country": "Espagne",
    "country_iso": "ES",
    "partnerships_count": 7
  }, {
    "uuid": "5683ede8-41d9-4bd5-8eab-79850cdc5fd9",
    "name": "Universitat politécnica de Valencia",
    "website": "http://www.upv.es",
    "erasmus_code": "E  VALENCI02",
    "partner_type": "Ambassade",
    "city": "Valencia",
    "country": "Espagne",
    "country_iso": "ES",
    "partnerships_count": 3
  }, {
    "uuid": "6fd64f22-e0fa-4c1a-8047-639070c1d05a",
    "name": "Università degli studi di Siena",
    "website": "http://www.unisi.it",
    "erasmus_code": "I  SIENA01",
    "partner_type": "Ambassade",
    "city": "Siena",
    "country": "Italie",
    "country_iso": "IT",
    "partnerships_count": 3
  }, {
    "uuid": "e501ec74-f2bd-48c0-bb49-767eb46a8196",
    "name": "Universitat de Barcelona",
    "website": "http://www.ub.es",
    "erasmus_code": "E  BARCELO01",
    "partner_type": "Ambassade",
    "city": "Barcelona",
    "country": "Espagne",
    "country_iso": "ES",
    "partnerships_count": 6
  }, {
    "uuid": "103df0a9-65c1-4200-82b4-3ce6bb4a5edb",
    "name": "Universidad de Salamanca",
    "website": "http://www.usal.es",
    "erasmus_code": "E  SALAMAN02",
    "partner_type": "Ambassade",
    "city": "Salamanca",
    "country": "Espagne",
    "country_iso": "ES",
    "partnerships_count": 9
  }, {
    "uuid": "fe505c9c-6bcf-4c42-a6d0-8146eff95e4e",
    "name": "University of Limerick",
    "website": "http://www.ul.ie",
    "erasmus_code": "IRLLIMERIC01",
    "partner_type": "Ambassade",
    "city": "Limerick",
    "country": "Irlande (Eire)",
    "country_iso": "IE",
    "partnerships_count": 2
  }, {
    "uuid": "537e01f4-bf49-473f-a897-fd4962eec090",
    "name": "Università di Bologna",
    "website": "http://www.unibo.it",
    "erasmus_code": "I  BOLOGNA01",
    "partner_type": "Ambassade",
    "city": "Bologna",
    "country": "Italie",
    "country_iso": "IT",
    "partnerships_count": 13
  }, {
    "uuid": "b70bd424-e3ce-4bd4-bc19-74d9966f302b",
    "name": "Technische Universiteit Delft",
    "website": "http://www.tudelft.nl",
    "erasmus_code": "NL DELFT01",
    "partner_type": "Ambassade",
    "city": "Delft",
    "country": "Pays-Bas",
    "country_iso": "NL",
    "partnerships_count": 1
  }, {
    "uuid": "987bae69-9b5b-4117-920a-965c8b662560",
    "name": "Philipps Universität Marburg",
    "website": "http://www.uni-marburg.de",
    "erasmus_code": "D  MARBURG01",
    "partner_type": "Ambassade",
    "city": "Marburg",
    "country": "Allemagne",
    "country_iso": "DE",
    "partnerships_count": 1
  }, {
    "uuid": "c4e1ffa7-b393-455c-8043-9a15c6882222",
    "name": "Cardiff University",
    "website": "http://www.cardiff.ac.uk",
    "erasmus_code": "UK CARDIFF01",
    "partner_type": "Ambassade",
    "city": "Cardiff",
    "country": "Gr.Bretagne/Irl.du Nord",
    "country_iso": "GB",
    "partnerships_count": 1
  }, {
    "uuid": "905ecaee-1e5d-423a-a14b-143144edda34",
    "name": "Università Cattolica del Sacro Cuore",
    "website": "http://www.unicatt.it",
    "erasmus_code": "I  MILANO03",
    "partner_type": "Ambassade",
    "city": "Milano",
    "country": "Italie",
    "country_iso": "IT",
    "partnerships_count": 4
  }, {
    "uuid": "81d94c3f-3d00-4b91-80d7-72ce99bc268b",
    "name": "Università degli studi di Padova",
    "website": "http://www.unipd.it",
    "erasmus_code": "I  PADOVA01",
    "partner_type": "Ambassade",
    "city": "Padova",
    "country": "Italie",
    "country_iso": "IT",
    "partnerships_count": 7
  }, {
    "uuid": "25c6124c-e861-43cb-af3c-7df6ef3c21de",
    "name": "Universidade Nova de Lisboa",
    "website": "http://www.unl.pt",
    "erasmus_code": "P  LISBOA03",
    "partner_type": "Ambassade",
    "city": "Lisboa",
    "country": "Portugal",
    "country_iso": "PT",
    "partnerships_count": 3
  }, {
    "uuid": "b613b03e-1c3e-4589-a7b9-c18ee8bd8b22",
    "name": "Universidad de Oviedo",
    "website": "http://www.uniovi.es",
    "erasmus_code": "E  OVIEDO01",
    "partner_type": "Ambassade",
    "city": "Oviedo",
    "country": "Espagne",
    "country_iso": "ES",
    "partnerships_count": 2
  }, {
    "uuid": "3393ab33-ad54-4fcd-a9e1-6413a1194187",
    "name": "UDeusto",
    "website": "http://www.deusto.es",
    "erasmus_code": "E  BILBAO02",
    "partner_type": "Ambassade",
    "city": "Bilbao",
    "country": "Espagne",
    "country_iso": "ES",
    "partnerships_count": 3
  }, {
    "uuid": "031c14d9-5d0e-4f37-a8fd-caf912183fd3",
    "name": "University of Oslo",
    "website": "http://www.uio.no",
    "erasmus_code": "N  OSLO01",
    "partner_type": "Ambassade",
    "city": "Oslo",
    "country": "Norvège",
    "country_iso": "NO",
    "partnerships_count": 3
  }, {
    "uuid": "31d542ee-ccb6-4652-b177-cd588ded10e4",
    "name": "Université Paris II Panthéon Assas",
    "website": "http://www.u-paris2.fr",
    "erasmus_code": "F  PARIS002",
    "partner_type": "Ambassade",
    "city": "Paris",
    "country": "France",
    "country_iso": "FR",
    "partnerships_count": 1
  }, {
    "uuid": "755a5ae5-79c8-4f13-86bd-21f2130538a0",
    "name": "Universität Innsbruck",
    "website": "http://www.uibk.ac.at",
    "erasmus_code": "A  INNSBRU01",
    "partner_type": "Ambassade",
    "city": "Innsbruck",
    "country": "Autriche",
    "country_iso": "AT",
    "partnerships_count": 1
  }, {
    "uuid": "ca79bef5-64e4-4fe9-81b4-b43e6123273b",
    "name": "Bayerische Julius-Maximilians Universität Würzburg",
    "website": "http://www.uni-wuerzburg.de",
    "erasmus_code": "D  WURZBUR01",
    "partner_type": "Ambassade",
    "city": "Würzburg",
    "country": "Allemagne",
    "country_iso": "DE",
    "partnerships_count": 2
  }, {
    "uuid": "c5fe2254-a1ad-4057-96cf-fb5eae62c00f",
    "name": "Christian-Albrechts-Universität zu Kiel",
    "website": "http://www.uni-kiel.de",
    "erasmus_code": "D  KIEL01",
    "partner_type": "Ambassade",
    "city": "Kiel",
    "country": "Allemagne",
    "country_iso": "DE",
    "partnerships_count": 1
  }, {
    "uuid": "e1dfe7e4-cff7-45f9-877c-b80e03f910d7",
    "name": "University of Glasgow",
    "website": "http://www.gla.ac.uk",
    "erasmus_code": "UK GLASGOW01",
    "partner_type": "Ambassade",
    "city": "Glasgow",
    "country": "Gr.Bretagne/Irl.du Nord",
    "country_iso": "GB",
    "partnerships_count": 2
  }]
}
